{
  "base": "datagram://localhost:5684",
  "description": "Thing uses JSON-LD 1.1 serialization",
  "id": "85",
  "name": "Adafruit DHT22 Temperature Sensor",
  "properties": {
    "temperature": {
      "label": "Celsius",
      "type": "number"
    }
  },
  "type": "sensor"
}
